out.vcd
$date today $end
$timescale 1 ns $end
$scope module ila $end
$var integer 1 ! ila_clock $end
$var integer 32 " jack_period $end
$upscope $end
$enddefinitions $end
#0
$dumpvars
1!
b111010010000001100000000 "
$end
#8
0!
#16
b111010100000001100000000 "
1!
#24
0!
#33
b111010110000001100000000 "
1!
#41
0!
#49
b111011000000001100000000 "
#50
1!
#58
0!
#66
b111011010000001100000000 "
1!
#74
0!
#83
1!
b111011100000001100000000 "
#91
0!
#99
1!
#100
b111011110000001100000000 "
#108
0!
#116
1!
b111100000000001100000000 "
#124
0!
#133
1!
b111100010000001100000000 "
#141
0!
#149
b111100100000001100000000 "
1!
#158
0!
#166
b111100110000001100000000 "
1!
#175
0!
#183
b111101000000001100000000 "
1!
#191
0!
#199
b111101010000001100000000 "
#200
1!
#208
0!
#216
b111101100000001100000000 "
1!
#225
0!
#233
b111101110000001100000000 "
1!
#241
0!
#249
b111110000000001100000000 "
#250
1!
#258
0!
#266
b111110010000001100000000 "
1!
#275
0!
#283
b111110100000001100000000 "
1!
#291
0!
#299
b111110110000001100000000 "
#300
1!
#308
0!
#316
b111111000000001100000000 "
1!
#325
0!
#333
b111111010000001100000000 "
1!
#341
0!
#350
b111111100000001100000000 "
1!
#358
0!
#366
b111111110000001100000000 "
1!
#375
0!
#383
b10000000000 "
1!
#391
0!
#400
b10000010000000000 "
1!
#408
0!
#416
b100000010000000000 "
1!
#425
0!
#433
b110000010000000000 "
1!
#441
0!
#450
b1000000010000000000 "
1!
#458
0!
#466
b1010000010000000000 "
1!
#475
0!
#483
b1100000010000000000 "
1!
#491
0!
#500
b1110000010000000000 "
1!
#508
0!
#516
1!
b10000000010000000000 "
#525
0!
#533
1!
b10010000010000000000 "
#541
0!
#549
1!
#550
b10100000010000000000 "
#558
0!
#566
1!
b10110000010000000000 "
#574
0!
#583
1!
b11000000010000000000 "
#591
0!
#599
1!
#600
b11010000010000000000 "
#608
0!
#616
1!
b11100000010000000000 "
#624
0!
#633
1!
b11110000010000000000 "
#641
0!
#649
1!
#650
b100000000010000000000 "
#658
0!
#666
1!
b100010000010000000000 "
#674
0!
#683
1!
b100100000010000000000 "
#691
0!
#699
1!
#700
b100110000010000000000 "
#708
0!
#716
1!
b101000000010000000000 "
#724
0!
#733
1!
b101010000010000000000 "
#741
0!
#749
1!
#750
b101100000010000000000 "
#758
0!
#766
1!
b101110000010000000000 "
#774
0!
#783
1!
b110000000010000000000 "
#791
0!
#799
1!
#800
b110010000010000000000 "
#808
0!
#816
1!
b110100000010000000000 "
#824
0!
#833
1!
b110110000010000000000 "
#841
0!
#849
1!
#850
b111000000010000000000 "
#858
0!
#866
1!
b111010000010000000000 "
#874
0!
#883
1!
b111100000010000000000 "
#891
0!
#899
1!
#900
b111110000010000000000 "
#908
0!
#916
1!
b1000000000010000000000 "
#924
0!
#933
1!
b1000010000010000000000 "
#941
0!
#949
1!
#950
b1000100000010000000000 "
#958
0!
#966
1!
b1000110000010000000000 "
#974
0!
#983
1!
b1001000000010000000000 "
#991
0!
#999
1!
#1000
b1001010000010000000000 "
#1008
0!
#1016
1!
b1001100000010000000000 "
#1024
0!
#1033
1!
b1001110000010000000000 "
#1041
0!
#1049
1!
#1050
b1010000000010000000000 "
#1058
0!
#1066
1!
b1010010000010000000000 "
#1074
0!
#1083
1!
b1010100000010000000000 "
#1091
0!
#1099
1!
b1010110000010000000000 "
#1108
0!
#1116
1!
b1011000000010000000000 "
#1124
0!
#1133
1!
b1011010000010000000000 "
#1141
0!
#1149
1!
b1011100000010000000000 "
#1158
0!
#1166
1!
b1011110000010000000000 "
#1174
0!
#1183
b1100000000010000000000 "
1!
#1191
0!
#1199
b1100010000010000000000 "
1!
#1208
0!
#1216
b1100100000010000000000 "
1!
#1224
0!
#1233
b1100110000010000000000 "
1!
#1241
0!
#1249
b1101000000010000000000 "
1!
#1258
0!
#1266
b1101010000010000000000 "
1!
#1275
0!
#1283
b1101100000010000000000 "
1!
#1291
0!
#1299
b1101110000010000000000 "
#1300
1!
#1308
0!
#1316
b1110000000010000000000 "
1!
#1325
0!
#1333
b1110010000010000000000 "
1!
#1341
0!
#1349
b1110100000010000000000 "
#1350
1!
#1358
0!
#1366
b1110110000010000000000 "
1!
#1375
0!
#1383
b1111000000010000000000 "
1!
#1391
0!
#1399
b1111010000010000000000 "
#1400
1!
#1408
0!
#1416
b1111100000010000000000 "
1!
#1425
0!
#1433
b1111110000010000000000 "
1!
#1441
0!
#1449
b10000000000010000000000 "
#1450
1!
#1458
0!
#1466
b10000010000010000000000 "
1!
#1475
0!
#1483
b10000100000010000000000 "
1!
#1491
0!
#1499
b10000110000010000000000 "
#1500
1!
#1508
0!
#1516
b10001000000010000000000 "
1!
#1525
0!
#1533
b10001010000010000000000 "
1!
#1541
0!
#1549
b10001100000010000000000 "
#1550
1!
#1558
0!
#1566
b10001110000010000000000 "
1!
#1575
0!
#1583
b10010000000010000000000 "
1!
#1591
0!
#1599
b10010010000010000000000 "
#1600
1!
#1608
0!
#1616
b10010100000010000000000 "
1!
#1625
0!
#1633
b10010110000010000000000 "
1!
#1641
0!
#1649
b10011000000010000000000 "
#1650
1!
#1658
0!
#1666
b10011010000010000000000 "
1!
#1675
0!
#1683
b10011100000010000000000 "
1!
#1691
0!
#1699
b10011110000010000000000 "
#1700
1!
#1708
0!
#1716
b10100000000010000000000 "
1!
#1725
0!
#1733
b10100010000010000000000 "
1!
#1741
0!
#1749
b10100100000010000000000 "
#1750
1!
#1758
0!
#1766
b10100110000010000000000 "
1!
#1775
0!
#1783
b10101000000010000000000 "
1!
#1791
0!
#1799
b10101010000010000000000 "
#1800
1!
#1808
0!
#1816
b10101100000010000000000 "
1!
#1825
0!
#1833
b10101110000010000000000 "
1!
#1841
0!
#1849
b10110000000010000000000 "
#1850
1!
#1858
0!
#1866
b10110010000010000000000 "
1!
#1875
0!
#1883
b10110100000010000000000 "
1!
#1891
0!
#1899
b10110110000010000000000 "
#1900
1!
#1908
0!
#1916
b10111000000010000000000 "
1!
#1925
0!
#1933
b10111010000010000000000 "
1!
#1941
0!
#1949
b10111100000010000000000 "
#1950
1!
#1958
0!
#1966
b10111110000010000000000 "
1!
#1975
0!
#1983
b11000000000010000000000 "
1!
#1991
0!
#1999
b11000010000010000000000 "
#2000
1!
#2008
0!
#2016
b11000100000010000000000 "
1!
#2025
0!
#2033
b11000110000010000000000 "
1!
#2041
0!
#2049
b11001000000010000000000 "
#2050
1!
#2058
0!
#2066
b11001010000010000000000 "
1!
#2075
0!
#2083
b11001100000010000000000 "
1!
#2091
0!
#2099
b11001110000010000000000 "
#2100
1!
#2108
0!
#2116
b11010000000010000000000 "
1!
#2125
0!
#2133
b11010010000010000000000 "
1!
#2141
0!
#2149
b11010100000010000000000 "
#2150
1!
#2158
0!
#2166
b11010110000010000000000 "
1!
#2175
0!
#2183
b11011000000010000000000 "
1!
#2191
0!
#2199
b11011010000010000000000 "
#2200
1!
#2208
0!
#2216
b11011100000010000000000 "
1!
#2225
0!
#2233
b11011110000010000000000 "
1!
#2241
0!
#2249
b11100000000010000000000 "
#2250
1!
#2258
0!
#2266
b11100010000010000000000 "
1!
#2275
0!
#2283
b11100100000010000000000 "
1!
#2291
0!
#2299
b11100110000010000000000 "
#2300
1!
#2308
0!
#2316
b11101000000010000000000 "
1!
#2325
0!
#2333
b11101010000010000000000 "
1!
#2341
0!
#2349
b11101100000010000000000 "
#2350
1!
#2358
0!
#2366
b11101110000010000000000 "
1!
#2375
0!
#2383
b11110000000010000000000 "
1!
#2391
0!
#2399
b11110010000010000000000 "
#2400
1!
#2408
0!
#2416
b11110100000010000000000 "
1!
#2425
0!
#2433
b11110110000010000000000 "
1!
#2441
0!
#2449
b11111000000010000000000 "
#2450
1!
#2458
0!
#2466
b11111010000010000000000 "
1!
#2475
0!
#2483
b11111100000010000000000 "
1!
#2491
0!
#2499
b11111110000010000000000 "
#2500
1!
#2508
0!
#2516
b100000000000010000000000 "
1!
#2525
0!
#2533
b100000010000010000000000 "
1!
#2541
0!
#2550
b100000100000010000000000 "
1!
#2558
0!
#2566
b100000110000010000000000 "
1!
#2575
0!
#2583
b100001000000010000000000 "
1!
#2591
0!
#2600
b100001010000010000000000 "
1!
#2608
0!
#2616
b100001100000010000000000 "
1!
#2625
0!
#2633
b100001110000010000000000 "
1!
#2641
0!
#2650
b100010000000010000000000 "
1!
#2658
0!
#2666
b100010010000010000000000 "
1!
#2675
0!
#2683
b100010100000010000000000 "
1!
#2691
0!
#2700
b100010110000010000000000 "
1!
#2708
0!
#2716
b100011000000010000000000 "
1!
#2725
0!
#2733
b100011010000010000000000 "
1!
#2741
0!
#2750
b100011100000010000000000 "
1!
#2758
0!
#2766
b100011110000010000000000 "
1!
#2775
0!
#2783
b100100000000010000000000 "
1!
#2791
0!
#2800
b100100010000010000000000 "
1!
#2808
0!
#2816
b100100100000010000000000 "
1!
#2825
0!
#2833
b100100110000010000000000 "
1!
#2841
0!
#2850
b100101000000010000000000 "
1!
#2858
0!
#2866
b100101010000010000000000 "
1!
#2875
0!
#2883
b100101100000010000000000 "
1!
#2891
0!
#2900
b100101110000010000000000 "
1!
#2908
0!
#2916
b100110000000010000000000 "
1!
#2925
0!
#2933
b100110010000010000000000 "
1!
#2941
0!
#2950
b100110100000010000000000 "
1!
#2958
0!
#2966
b100110110000010000000000 "
1!
#2975
0!
#2983
b100111000000010000000000 "
1!
#2991
0!
#3000
b100111010000010000000000 "
1!
#3008
0!
#3016
b100111100000010000000000 "
1!
#3025
0!
#3033
b100111110000010000000000 "
1!
#3041
0!
#3050
b101000000000010000000000 "
1!
#3058
0!
#3066
b101000010000010000000000 "
1!
#3075
0!
#3083
b101000100000010000000000 "
1!
#3091
0!
#3100
b101000110000010000000000 "
1!
#3108
0!
#3116
b101001000000010000000000 "
1!
#3125
0!
#3133
b101001010000010000000000 "
1!
#3141
0!
#3150
b101001100000010000000000 "
1!
#3158
0!
#3166
b101001110000010000000000 "
1!
#3175
0!
#3183
b101010000000010000000000 "
1!
#3191
0!
#3200
b101010010000010000000000 "
1!
#3208
0!
#3216
b101010100000010000000000 "
1!
#3225
0!
#3233
b101010110000010000000000 "
1!
#3241
0!
#3250
b101011000000010000000000 "
1!
#3258
0!
#3266
b101011010000010000000000 "
1!
#3275
0!
#3283
b101011100000010000000000 "
1!
#3291
0!
#3300
b101011110000010000000000 "
1!
#3308
0!
#3316
b101100000000010000000000 "
1!
#3325
0!
#3333
b101100010000010000000000 "
1!
#3341
0!
#3350
b101100100000010000000000 "
1!
#3358
0!
#3366
b101100110000010000000000 "
1!
#3375
0!
#3383
b101101000000010000000000 "
1!
#3391
0!
#3400
b101101010000010000000000 "
1!
#3408
0!
#3416
b101101100000010000000000 "
1!
#3425
0!
#3433
b101101110000010000000000 "
1!
#3441
0!
#3450
b101110000000010000000000 "
1!
#3458
0!
#3466
b101110010000010000000000 "
1!
#3475
0!
#3483
b101110100000010000000000 "
1!
#3491
0!
#3500
b101110110000010000000000 "
1!
#3508
0!
#3516
b101111000000010000000000 "
1!
#3525
0!
#3533
b101111010000010000000000 "
1!
#3541
0!
#3550
b101111100000010000000000 "
1!
#3558
0!
#3566
b101111110000010000000000 "
1!
#3575
0!
#3583
b110000000000010000000000 "
1!
#3591
0!
#3600
b110000010000010000000000 "
1!
#3608
0!
#3616
b110000100000010000000000 "
1!
#3625
0!
#3633
b110000110000010000000000 "
1!
#3641
0!
#3650
b110001000000010000000000 "
1!
#3658
0!
#3666
b110001010000010000000000 "
1!
#3675
0!
#3683
b110001100000010000000000 "
1!
#3691
0!
#3700
b110001110000010000000000 "
1!
#3708
0!
#3716
b110010000000010000000000 "
1!
#3725
0!
#3733
b110010010000010000000000 "
1!
#3741
0!
#3750
b110010100000010000000000 "
1!
#3758
0!
#3766
b110010110000010000000000 "
1!
#3775
0!
#3783
b110011000000010000000000 "
1!
#3791
0!
#3800
b110011010000010000000000 "
1!
#3808
0!
#3816
b110011100000010000000000 "
1!
#3825
0!
#3833
b110011110000010000000000 "
1!
#3841
0!
#3850
b110100000000010000000000 "
1!
#3858
0!
#3866
b110100010000010000000000 "
1!
#3875
0!
#3883
b110100100000010000000000 "
1!
#3891
0!
#3900
b110100110000010000000000 "
1!
#3908
0!
#3916
b110101000000010000000000 "
1!
#3925
0!
#3933
b110101010000010000000000 "
1!
#3941
0!
#3950
b110101100000010000000000 "
1!
#3958
0!
#3966
b110101110000010000000000 "
1!
#3975
0!
#3983
b110110000000010000000000 "
1!
#3991
0!
#4000
b110110010000010000000000 "
1!
#4008
0!
#4016
1!
b110110100000010000000000 "
#4025
0!
#4033
1!
b110110110000010000000000 "
#4041
0!
#4050
1!
b110111000000010000000000 "
#4058
0!
#4066
1!
b110111010000010000000000 "
#4075
0!
#4083
1!
b110111100000010000000000 "
#4091
0!
#4100
1!
b110111110000010000000000 "
#4108
0!
#4116
1!
b111000000000010000000000 "
#4125
0!
#4133
1!
b111000010000010000000000 "
#4141
0!
#4150
1!
b111000100000010000000000 "
#4158
0!
#4166
1!
b111000110000010000000000 "
#4175
0!
#4183
1!
b111001000000010000000000 "
#4191
0!
#4200
1!
b111001010000010000000000 "
#4208
0!
#4216
1!
b111001100000010000000000 "
#4225
0!
#4233
1!
b111001110000010000000000 "
#4241
0!
#4250
1!
b111010000000010000000000 "
#4258
0!
#4266
1!
b111010010000010000000000 "
#4274
0!
#4283
1!
b111010100000010000000000 "
#4291
0!
#4299
1!
#4300
b111010110000010000000000 "
#4308
0!
#4316
1!
b111011000000010000000000 "
#4324
0!
#4333
1!
b111011010000010000000000 "
#4341
0!
#4349
1!
#4350
b111011100000010000000000 "
#4358
0!
#4366
1!
b111011110000010000000000 "
#4374
0!
#4383
1!
b111100000000010000000000 "
#4391
0!
#4399
1!
#4400
b111100010000010000000000 "
#4408
0!
#4416
1!
b111100100000010000000000 "
#4424
0!
#4433
1!
b111100110000010000000000 "
#4441
0!
#4449
1!
#4450
b111101000000010000000000 "
#4458
0!
#4466
1!
b111101010000010000000000 "
#4474
0!
#4483
1!
b111101100000010000000000 "
#4491
0!
#4499
1!
#4500
b111101110000010000000000 "
#4508
0!
#4516
1!
b111110000000010000000000 "
#4524
0!
#4533
1!
b111110010000010000000000 "
#4541
0!
#4549
1!
#4550
b111110100000010000000000 "
#4558
0!
#4566
1!
b111110110000010000000000 "
#4574
0!
#4583
1!
b111111000000010000000000 "
#4591
0!
#4599
1!
#4600
b111111010000010000000000 "
#4608
0!
#4616
1!
b111111100000010000000000 "
#4624
0!
#4633
1!
b111111110000010000000000 "
#4641
0!
#4649
1!
#4650
b10100000000 "
#4658
0!
#4666
1!
b10000010100000000 "
#4674
0!
#4683
1!
b100000010100000000 "
#4691
0!
#4699
1!
#4700
b110000010100000000 "
#4708
0!
#4716
1!
b1000000010100000000 "
#4724
0!
#4733
1!
b1010000010100000000 "
#4741
0!
#4749
1!
#4750
b1100000010100000000 "
#4758
0!
#4766
1!
b1110000010100000000 "
#4774
0!
#4783
1!
b10000000010100000000 "
#4791
0!
#4799
1!
#4800
b10010000010100000000 "
#4808
0!
#4816
1!
b10100000010100000000 "
#4824
0!
#4833
1!
b10110000010100000000 "
#4841
0!
#4849
1!
#4850
b11000000010100000000 "
#4858
0!
#4866
1!
b11010000010100000000 "
#4874
0!
#4883
1!
b11100000010100000000 "
#4891
0!
#4899
1!
#4900
b11110000010100000000 "
#4908
0!
#4916
1!
b100000000010100000000 "
#4924
0!
#4933
1!
b100010000010100000000 "
#4941
0!
#4949
1!
#4950
b100100000010100000000 "
#4958
0!
#4966
1!
b100110000010100000000 "
#4974
0!
#4983
1!
b101000000010100000000 "
#4991
0!
#4999
1!
#5000
b101010000010100000000 "
#5008
0!
#5016
1!
b101100000010100000000 "
#5024
0!
#5033
1!
b101110000010100000000 "
#5041
0!
#5049
1!
#5050
b110000000010100000000 "
#5058
0!
#5066
1!
b110010000010100000000 "
#5074
0!
#5083
1!
b110100000010100000000 "
#5091
0!
#5099
1!
#5100
b110110000010100000000 "
#5108
0!
#5116
1!
b111000000010100000000 "
#5124
0!
#5133
1!
b111010000010100000000 "
#5141
0!
#5149
1!
#5150
b111100000010100000000 "
#5158
0!
#5166
1!
b111110000010100000000 "
#5174
0!
#5183
1!
b1000000000010100000000 "
#5191
0!
#5199
1!
#5200
b1000010000010100000000 "
#5208
0!
#5216
1!
b1000100000010100000000 "
#5224
0!
#5233
1!
b1000110000010100000000 "
#5241
0!
#5249
1!
#5250
b1001000000010100000000 "
#5258
0!
#5266
1!
b1001010000010100000000 "
#5274
0!
#5283
1!
b1001100000010100000000 "
#5291
0!
#5299
1!
#5300
b1001110000010100000000 "
#5308
0!
#5316
1!
b1010000000010100000000 "
#5324
0!
#5333
1!
b1010010000010100000000 "
#5341
0!
#5349
1!
#5350
b1010100000010100000000 "
#5358
0!
#5366
1!
b1010110000010100000000 "
#5374
0!
#5383
1!
b1011000000010100000000 "
#5391
0!
#5399
1!
#5400
b1011010000010100000000 "
#5408
0!
#5416
1!
b1011100000010100000000 "
#5424
0!
#5433
1!
b1011110000010100000000 "
#5441
0!
#5449
1!
#5450
b1100000000010100000000 "
#5458
0!
#5466
1!
b1100010000010100000000 "
#5474
0!
#5483
1!
b1100100000010100000000 "
#5491
0!
#5499
1!
#5500
b1100110000010100000000 "
#5508
0!
#5516
1!
b1101000000010100000000 "
#5524
0!
#5533
1!
b1101010000010100000000 "
#5541
0!
#5549
1!
#5550
b1101100000010100000000 "
#5558
0!
#5566
1!
b1101110000010100000000 "
#5574
0!
#5583
1!
b1110000000010100000000 "
#5591
0!
#5599
1!
#5600
b1110010000010100000000 "
#5608
0!
#5616
1!
b1110100000010100000000 "
#5624
0!
#5633
1!
b1110110000010100000000 "
#5641
0!
#5649
1!
#5650
b1111000000010100000000 "
#5658
0!
#5666
1!
b1111010000010100000000 "
#5674
0!
#5683
1!
b1111100000010100000000 "
#5691
0!
#5699
1!
#5700
b1111110000010100000000 "
#5708
0!
#5716
1!
b10000000000010100000000 "
#5724
0!
#5733
1!
b10000010000010100000000 "
#5741
0!
#5749
1!
#5750
b10000100000010100000000 "
#5758
0!
#5766
1!
b10000110000010100000000 "
#5774
0!
#5783
1!
b10001000000010100000000 "
#5791
0!
#5799
1!
#5800
b10001010000010100000000 "
#5808
0!
#5816
1!
b10001100000010100000000 "
#5824
0!
#5833
1!
b10001110000010100000000 "
#5841
0!
#5849
1!
#5850
b10010000000010100000000 "
#5858
0!
#5866
1!
b10010010000010100000000 "
#5874
0!
#5883
1!
b10010100000010100000000 "
#5891
0!
#5899
1!
#5900
b10010110000010100000000 "
#5908
0!
#5916
1!
b10011000000010100000000 "
#5924
0!
#5933
1!
b10011010000010100000000 "
#5941
0!
#5949
1!
#5950
b10011100000010100000000 "
#5958
0!
#5966
1!
b10011110000010100000000 "
#5974
0!
#5983
1!
b10100000000010100000000 "
#5991
0!
#5999
1!
#6000
b10100010000010100000000 "
#6008
0!
#6016
1!
b10100100000010100000000 "
#6024
0!
#6033
1!
b10100110000010100000000 "
#6041
0!
#6049
1!
#6050
b10101000000010100000000 "
#6058
0!
#6066
1!
b10101010000010100000000 "
#6074
0!
#6083
1!
b10101100000010100000000 "
#6091
0!
#6099
1!
#6100
b10101110000010100000000 "
#6108
0!
#6116
1!
b10110000000010100000000 "
#6124
0!
#6133
1!
b10110010000010100000000 "
#6141
0!
#6149
1!
#6150
b10110100000010100000000 "
#6158
0!
#6166
1!
b10110110000010100000000 "
#6174
0!
#6183
1!
b10111000000010100000000 "
#6191
0!
#6199
1!
#6200
b10111010000010100000000 "
#6208
0!
#6216
1!
b10111100000010100000000 "
#6224
0!
#6233
1!
b10111110000010100000000 "
#6241
0!
#6249
1!
#6250
b11000000000010100000000 "
#6258
0!
#6266
1!
b11000010000010100000000 "
#6274
0!
#6283
1!
b11000100000010100000000 "
#6291
0!
#6299
1!
#6300
b11000110000010100000000 "
#6308
0!
#6316
1!
b11001000000010100000000 "
#6324
0!
#6333
1!
b11001010000010100000000 "
#6341
0!
#6349
1!
#6350
b11001100000010100000000 "
#6358
0!
#6366
1!
b11001110000010100000000 "
#6374
0!
#6383
1!
b11010000000010100000000 "
#6391
0!
#6399
1!
#6400
b11010010000010100000000 "
#6408
0!
#6416
1!
b11010100000010100000000 "
#6424
0!
#6433
1!
b11010110000010100000000 "
#6441
0!
#6449
1!
#6450
b11011000000010100000000 "
#6458
0!
#6466
1!
b11011010000010100000000 "
#6474
0!
#6483
1!
b11011100000010100000000 "
#6491
0!
#6499
1!
#6500
b11011110000010100000000 "
#6508
0!
#6516
1!
b11100000000010100000000 "
#6524
0!
#6533
1!
b11100010000010100000000 "
#6541
0!
#6549
1!
#6550
b11100100000010100000000 "
#6558
0!
#6566
1!
b11100110000010100000000 "
#6574
0!
#6583
1!
b11101000000010100000000 "
#6591
0!
#6599
1!
#6600
b11101010000010100000000 "
#6608
0!
#6616
1!
b11101100000010100000000 "
#6624
0!
#6633
1!
b11101110000010100000000 "
#6641
0!
#6649
1!
#6650
b11110000000010100000000 "
#6658
0!
#6666
1!
b11110010000010100000000 "
#6674
0!
#6683
1!
b11110100000010100000000 "
#6691
0!
#6699
1!
#6700
b11110110000010100000000 "
#6708
0!
#6716
1!
b11111000000010100000000 "
#6724
0!
#6733
1!
b11111010000010100000000 "
#6741
0!
#6749
1!
#6750
b11111100000010100000000 "
#6758
0!
#6766
1!
b11111110000010100000000 "
#6774
0!
#6783
1!
b100000000000010100000000 "
#6791
0!
#6799
1!
#6800
b100000010000010100000000 "
#6808
0!
#6816
1!
b100000100000010100000000 "
#6824
0!
#6833
1!
b100000110000010100000000 "
#6841
0!
#6849
1!
#6850
b100001000000010100000000 "
#6858
0!
#6866
1!
b100001010000010100000000 "
#6874
0!
#6883
1!
b100001100000010100000000 "
#6891
0!
#6899
1!
#6900
b100001110000010100000000 "
#6908
0!
#6916
1!
b100010000000010100000000 "
#6924
0!
#6933
1!
b100010010000010100000000 "
#6941
0!
#6949
1!
#6950
b100010100000010100000000 "
#6958
0!
#6966
1!
b100010110000010100000000 "
#6974
0!
#6983
1!
b100011000000010100000000 "
#6991
0!
#6999
1!
#7000
b100011010000010100000000 "
#7008
0!
#7016
1!
b100011100000010100000000 "
#7024
0!
#7033
1!
b100011110000010100000000 "
#7041
0!
#7049
1!
#7050
b100100000000010100000000 "
#7058
0!
#7066
1!
b100100010000010100000000 "
#7074
0!
#7083
1!
b100100100000010100000000 "
#7091
0!
#7099
1!
#7100
b100100110000010100000000 "
#7108
0!
#7116
1!
b100101000000010100000000 "
#7124
0!
#7133
1!
b100101010000010100000000 "
#7141
0!
#7149
1!
#7150
b100101100000010100000000 "
#7158
0!
#7166
1!
b100101110000010100000000 "
#7174
0!
#7183
1!
b100110000000010100000000 "
#7191
0!
#7199
1!
#7200
b100110010000010100000000 "
#7208
0!
#7216
1!
b100110100000010100000000 "
#7224
0!
#7233
1!
b100110110000010100000000 "
#7241
0!
#7249
1!
#7250
b100111000000010100000000 "
#7258
0!
#7266
1!
b100111010000010100000000 "
#7274
0!
#7283
1!
b100111100000010100000000 "
#7291
0!
#7299
1!
#7300
b100111110000010100000000 "
#7308
0!
#7316
1!
b101000000000010100000000 "
#7324
0!
#7333
1!
b101000010000010100000000 "
#7341
0!
#7349
1!
#7350
b101000100000010100000000 "
#7358
0!
#7366
1!
b101000110000010100000000 "
#7374
0!
#7383
1!
b101001000000010100000000 "
#7391
0!
#7399
1!
#7400
b101001010000010100000000 "
#7408
0!
#7416
1!
b101001100000010100000000 "
#7424
0!
#7433
1!
b101001110000010100000000 "
#7441
0!
#7449
1!
#7450
b101010000000010100000000 "
#7458
0!
#7466
1!
b101010010000010100000000 "
#7474
0!
#7483
1!
b101010100000010100000000 "
#7491
0!
#7499
1!
#7500
b101010110000010100000000 "
#7508
0!
#7516
1!
b101011000000010100000000 "
#7524
0!
#7533
1!
b101011010000010100000000 "
#7541
0!
#7549
1!
#7550
b101011100000010100000000 "
#7558
0!
#7566
1!
b101011110000010100000000 "
#7574
0!
#7583
1!
b101100000000010100000000 "
#7591
0!
#7599
1!
#7600
b101100010000010100000000 "
#7608
0!
#7616
1!
b101100100000010100000000 "
#7624
0!
#7633
1!
b101100110000010100000000 "
#7641
0!
#7649
1!
#7650
b101101000000010100000000 "
#7658
0!
#7666
1!
b101101010000010100000000 "
#7674
0!
#7683
1!
b101101100000010100000000 "
#7691
0!
#7699
1!
#7700
b101101110000010100000000 "
#7708
0!
#7716
1!
b101110000000010100000000 "
#7724
0!
#7733
1!
b101110010000010100000000 "
#7741
0!
#7749
1!
#7750
b101110100000010100000000 "
#7758
0!
#7766
1!
b101110110000010100000000 "
#7774
0!
#7783
1!
b101111000000010100000000 "
#7791
0!
#7799
1!
#7800
b101111010000010100000000 "
#7808
0!
#7816
1!
b101111100000010100000000 "
#7824
0!
#7833
1!
b101111110000010100000000 "
#7841
0!
#7849
1!
#7850
b110000000000010100000000 "
#7858
0!
#7866
1!
b110000010000010100000000 "
#7874
0!
#7883
1!
b110000100000010100000000 "
#7891
0!
#7899
1!
#7900
b110000110000010100000000 "
#7908
0!
#7916
1!
b110001000000010100000000 "
#7924
0!
#7933
1!
b110001010000010100000000 "
#7941
0!
#7949
1!
#7950
b110001100000010100000000 "
#7958
0!
#7966
1!
b110001110000010100000000 "
#7974
0!
#7983
1!
b110010000000010100000000 "
#7991
0!
#7999
1!
#8000
b110010010000010100000000 "
#8008
0!
#8016
1!
b110010100000010100000000 "
#8024
0!
#8033
1!
b110010110000010100000000 "
#8041
0!
#8049
1!
#8050
b110011000000010100000000 "
#8058
0!
#8066
1!
b110011010000010100000000 "
#8074
0!
#8083
1!
b110011100000010100000000 "
#8091
0!
#8099
1!
#8100
b110011110000010100000000 "
#8108
0!
#8116
1!
b110100000000010100000000 "
#8124
0!
#8133
1!
b110100010000010100000000 "
#8141
0!
#8149
1!
#8150
b110100100000010100000000 "
#8158
0!
#8166
1!
b110100110000010100000000 "
#8174
0!
#8183
1!
b110101000000010100000000 "
#8191
0!
#8199
1!
#8200
b110101010000010100000000 "
#8208
0!
#8216
1!
b110101100000010100000000 "
#8224
0!
#8233
1!
b110101110000010100000000 "
#8241
0!
#8249
1!
#8250
b110110000000010100000000 "
#8258
0!
#8266
1!
b110110010000010100000000 "
#8274
0!
#8283
1!
b110110100000010100000000 "
#8291
0!
#8299
1!
#8300
b110110110000010100000000 "
#8308
0!
#8316
1!
b110111000000010100000000 "
#8324
0!
#8333
1!
b110111010000010100000000 "
#8341
0!
#8349
1!
#8350
b110111100000010100000000 "
#8358
0!
#8366
1!
b110111110000010100000000 "
#8374
0!
#8383
1!
b111000000000010100000000 "
#8391
0!
#8399
1!
#8400
b111000010000010100000000 "
#8408
0!
#8416
1!
b111000100000010100000000 "
#8424
0!
#8433
1!
b111000110000010100000000 "
#8441
0!
#8449
1!
#8450
b111001000000010100000000 "
#8458
0!
#8466
1!
b111001010000010100000000 "
#8474
0!
#8483
1!
b111001100000010100000000 "
#8491
0!
#8499
1!
#8500
b111001110000010100000000 "
#8508
0!
#8516
1!
b111010000000010100000000 "
